﻿<error errorId="fd09ff8e-3d9a-4d33-851b-8fd902b11aeb" application="/LM/W3SVC/1/ROOT/SolicitudEmpleado.MVC" host="RIPEREZ" type="System.NullReferenceException" message="Object reference not set to an instance of an object." source="SolicitudEmpleado.MVC" detail="System.NullReferenceException: Object reference not set to an instance of an object.&#xD;&#xA;   at SolicitudEmpleado.MVC.Controllers.PropiedadesController.Create(Propiedad propiedad) in d:\Eduardo\Proyectos\vsNet2013\SolicitudEmpleado\SolicitudEmpleado.MVC\Controllers\PropiedadesController.cs:line 123&#xD;&#xA;   at lambda_method(Closure , ControllerBase , Object[] )&#xD;&#xA;   at System.Web.Mvc.ReflectedActionDescriptor.Execute(ControllerContext controllerContext, IDictionary`2 parameters)&#xD;&#xA;   at System.Web.Mvc.ControllerActionInvoker.InvokeActionMethod(ControllerContext controllerContext, ActionDescriptor actionDescriptor, IDictionary`2 parameters)&#xD;&#xA;   at System.Web.Mvc.Async.AsyncControllerActionInvoker.&lt;BeginInvokeSynchronousActionMethod&gt;b__39(IAsyncResult asyncResult, ActionInvocation innerInvokeState)&#xD;&#xA;   at System.Web.Mvc.Async.AsyncResultWrapper.WrappedAsyncResult`2.CallEndDelegate(IAsyncResult asyncResult)&#xD;&#xA;   at System.Web.Mvc.Async.AsyncControllerActionInvoker.AsyncInvocationWithFilters.&lt;InvokeActionMethodFilterAsynchronouslyRecursive&gt;b__3d()&#xD;&#xA;   at System.Web.Mvc.Async.AsyncControllerActionInvoker.AsyncInvocationWithFilters.&lt;&gt;c__DisplayClass46.&lt;InvokeActionMethodFilterAsynchronouslyRecursive&gt;b__3f()&#xD;&#xA;   at System.Web.Mvc.Async.AsyncControllerActionInvoker.AsyncInvocationWithFilters.&lt;&gt;c__DisplayClass46.&lt;InvokeActionMethodFilterAsynchronouslyRecursive&gt;b__3f()&#xD;&#xA;   at System.Web.Mvc.Async.AsyncControllerActionInvoker.&lt;&gt;c__DisplayClass33.&lt;BeginInvokeActionMethodWithFilters&gt;b__32(IAsyncResult asyncResult)&#xD;&#xA;   at System.Web.Mvc.Async.AsyncControllerActionInvoker.&lt;&gt;c__DisplayClass21.&lt;&gt;c__DisplayClass2b.&lt;BeginInvokeAction&gt;b__1c()&#xD;&#xA;   at System.Web.Mvc.Async.AsyncControllerActionInvoker.&lt;&gt;c__DisplayClass21.&lt;BeginInvokeAction&gt;b__1e(IAsyncResult asyncResult)&#xD;&#xA;   at System.Web.Mvc.Controller.&lt;BeginExecuteCore&gt;b__1d(IAsyncResult asyncResult, ExecuteCoreState innerState)&#xD;&#xA;   at System.Web.Mvc.Async.AsyncResultWrapper.WrappedAsyncVoid`1.CallEndDelegate(IAsyncResult asyncResult)&#xD;&#xA;   at System.Web.Mvc.Controller.EndExecuteCore(IAsyncResult asyncResult)&#xD;&#xA;   at System.Web.Mvc.Async.AsyncResultWrapper.WrappedAsyncVoid`1.CallEndDelegate(IAsyncResult asyncResult)&#xD;&#xA;   at System.Web.Mvc.MvcHandler.&lt;BeginProcessRequest&gt;b__5(IAsyncResult asyncResult, ProcessRequestState innerState)&#xD;&#xA;   at System.Web.Mvc.Async.AsyncResultWrapper.WrappedAsyncVoid`1.CallEndDelegate(IAsyncResult asyncResult)&#xD;&#xA;   at System.Web.HttpApplication.CallHandlerExecutionStep.System.Web.HttpApplication.IExecutionStep.Execute()&#xD;&#xA;   at System.Web.HttpApplication.ExecuteStep(IExecutionStep step, Boolean&amp; completedSynchronously)" user="BRRD\ESSeverino" time="2015-11-04T15:47:56.2850171Z">
  <serverVariables>
    <item name="ALL_HTTP">
      <value string="HTTP_CACHE_CONTROL:max-age=0&#xD;&#xA;HTTP_CONNECTION:keep-alive&#xD;&#xA;HTTP_CONTENT_LENGTH:233&#xD;&#xA;HTTP_CONTENT_TYPE:application/x-www-form-urlencoded&#xD;&#xA;HTTP_ACCEPT:text/html,application/xhtml+xml,application/xml;q=0.9,image/webp,*/*;q=0.8&#xD;&#xA;HTTP_ACCEPT_ENCODING:gzip, deflate&#xD;&#xA;HTTP_ACCEPT_LANGUAGE:es-ES,es;q=0.8,en;q=0.6,gl;q=0.4,pt;q=0.2&#xD;&#xA;HTTP_COOKIE:ASP.NET_SessionId=g3tbvgc1er2xni5cz10ysxpw; __RequestVerificationToken_L1NvbGljaXR1ZEVtcGxlYWRvLk1WQw2=OQ3vdGm61KEBi5n7VZ98tuo2Ficfp8yg2K1ezOEd0AE31-d6fYS0RMYrJLvE_SXhyanSUKUzYzCL2fqqxnvNZGYq_TU1; __RequestVerificationToken_L0FmcFNpdGVDbGllbnRlcw2=CyP_rjwF-mRFapOWaL9bkDQ0FZlfkbdJokKV-xErMa0JBd3vlKfqo7xu6M12wthfDk1ZofHYHWxZtSxlNTQ5nz-HNgd3K6QNB_6ajNi5J141&#xD;&#xA;HTTP_HOST:localhost&#xD;&#xA;HTTP_REFERER:http://localhost/SolicitudEmpleado.MVC/TiposPropiedads/Index/?id1=9&amp;id2=1&#xD;&#xA;HTTP_USER_AGENT:Mozilla/5.0 (Windows NT 6.3; WOW64) AppleWebKit/537.36 (KHTML, like Gecko) Chrome/46.0.2490.80 Safari/537.36&#xD;&#xA;HTTP_ORIGIN:http://localhost&#xD;&#xA;HTTP_UPGRADE_INSECURE_REQUESTS:1&#xD;&#xA;" />
    </item>
    <item name="ALL_RAW">
      <value string="Cache-Control: max-age=0&#xD;&#xA;Connection: keep-alive&#xD;&#xA;Content-Length: 233&#xD;&#xA;Content-Type: application/x-www-form-urlencoded&#xD;&#xA;Accept: text/html,application/xhtml+xml,application/xml;q=0.9,image/webp,*/*;q=0.8&#xD;&#xA;Accept-Encoding: gzip, deflate&#xD;&#xA;Accept-Language: es-ES,es;q=0.8,en;q=0.6,gl;q=0.4,pt;q=0.2&#xD;&#xA;Cookie: ASP.NET_SessionId=g3tbvgc1er2xni5cz10ysxpw; __RequestVerificationToken_L1NvbGljaXR1ZEVtcGxlYWRvLk1WQw2=OQ3vdGm61KEBi5n7VZ98tuo2Ficfp8yg2K1ezOEd0AE31-d6fYS0RMYrJLvE_SXhyanSUKUzYzCL2fqqxnvNZGYq_TU1; __RequestVerificationToken_L0FmcFNpdGVDbGllbnRlcw2=CyP_rjwF-mRFapOWaL9bkDQ0FZlfkbdJokKV-xErMa0JBd3vlKfqo7xu6M12wthfDk1ZofHYHWxZtSxlNTQ5nz-HNgd3K6QNB_6ajNi5J141&#xD;&#xA;Host: localhost&#xD;&#xA;Referer: http://localhost/SolicitudEmpleado.MVC/TiposPropiedads/Index/?id1=9&amp;id2=1&#xD;&#xA;User-Agent: Mozilla/5.0 (Windows NT 6.3; WOW64) AppleWebKit/537.36 (KHTML, like Gecko) Chrome/46.0.2490.80 Safari/537.36&#xD;&#xA;Origin: http://localhost&#xD;&#xA;Upgrade-Insecure-Requests: 1&#xD;&#xA;" />
    </item>
    <item name="APPL_MD_PATH">
      <value string="/LM/W3SVC/1/ROOT/SolicitudEmpleado.MVC" />
    </item>
    <item name="APPL_PHYSICAL_PATH">
      <value string="D:\Eduardo\Proyectos\vsNet2013\SolicitudEmpleado\SolicitudEmpleado.MVC\" />
    </item>
    <item name="AUTH_TYPE">
      <value string="Negotiate" />
    </item>
    <item name="AUTH_USER">
      <value string="BRRD\ESSeverino" />
    </item>
    <item name="AUTH_PASSWORD">
      <value string="*****" />
    </item>
    <item name="LOGON_USER">
      <value string="BRRD\ESSeverino" />
    </item>
    <item name="REMOTE_USER">
      <value string="BRRD\ESSeverino" />
    </item>
    <item name="CERT_COOKIE">
      <value string="" />
    </item>
    <item name="CERT_FLAGS">
      <value string="" />
    </item>
    <item name="CERT_ISSUER">
      <value string="" />
    </item>
    <item name="CERT_KEYSIZE">
      <value string="" />
    </item>
    <item name="CERT_SECRETKEYSIZE">
      <value string="" />
    </item>
    <item name="CERT_SERIALNUMBER">
      <value string="" />
    </item>
    <item name="CERT_SERVER_ISSUER">
      <value string="" />
    </item>
    <item name="CERT_SERVER_SUBJECT">
      <value string="" />
    </item>
    <item name="CERT_SUBJECT">
      <value string="" />
    </item>
    <item name="CONTENT_LENGTH">
      <value string="233" />
    </item>
    <item name="CONTENT_TYPE">
      <value string="application/x-www-form-urlencoded" />
    </item>
    <item name="GATEWAY_INTERFACE">
      <value string="CGI/1.1" />
    </item>
    <item name="HTTPS">
      <value string="off" />
    </item>
    <item name="HTTPS_KEYSIZE">
      <value string="" />
    </item>
    <item name="HTTPS_SECRETKEYSIZE">
      <value string="" />
    </item>
    <item name="HTTPS_SERVER_ISSUER">
      <value string="" />
    </item>
    <item name="HTTPS_SERVER_SUBJECT">
      <value string="" />
    </item>
    <item name="INSTANCE_ID">
      <value string="1" />
    </item>
    <item name="INSTANCE_META_PATH">
      <value string="/LM/W3SVC/1" />
    </item>
    <item name="LOCAL_ADDR">
      <value string="::1" />
    </item>
    <item name="PATH_INFO">
      <value string="/SolicitudEmpleado.MVC/Propiedades/Create/1" />
    </item>
    <item name="PATH_TRANSLATED">
      <value string="D:\Eduardo\Proyectos\vsNet2013\SolicitudEmpleado\SolicitudEmpleado.MVC\Propiedades\Create\1" />
    </item>
    <item name="QUERY_STRING">
      <value string="solicitudTipoId=9" />
    </item>
    <item name="REMOTE_ADDR">
      <value string="::1" />
    </item>
    <item name="REMOTE_HOST">
      <value string="::1" />
    </item>
    <item name="REMOTE_PORT">
      <value string="59367" />
    </item>
    <item name="REQUEST_METHOD">
      <value string="POST" />
    </item>
    <item name="SCRIPT_NAME">
      <value string="/SolicitudEmpleado.MVC/Propiedades/Create/1" />
    </item>
    <item name="SERVER_NAME">
      <value string="localhost" />
    </item>
    <item name="SERVER_PORT">
      <value string="80" />
    </item>
    <item name="SERVER_PORT_SECURE">
      <value string="0" />
    </item>
    <item name="SERVER_PROTOCOL">
      <value string="HTTP/1.1" />
    </item>
    <item name="SERVER_SOFTWARE">
      <value string="Microsoft-IIS/8.5" />
    </item>
    <item name="URL">
      <value string="/SolicitudEmpleado.MVC/Propiedades/Create/1" />
    </item>
    <item name="HTTP_CACHE_CONTROL">
      <value string="max-age=0" />
    </item>
    <item name="HTTP_CONNECTION">
      <value string="keep-alive" />
    </item>
    <item name="HTTP_CONTENT_LENGTH">
      <value string="233" />
    </item>
    <item name="HTTP_CONTENT_TYPE">
      <value string="application/x-www-form-urlencoded" />
    </item>
    <item name="HTTP_ACCEPT">
      <value string="text/html,application/xhtml+xml,application/xml;q=0.9,image/webp,*/*;q=0.8" />
    </item>
    <item name="HTTP_ACCEPT_ENCODING">
      <value string="gzip, deflate" />
    </item>
    <item name="HTTP_ACCEPT_LANGUAGE">
      <value string="es-ES,es;q=0.8,en;q=0.6,gl;q=0.4,pt;q=0.2" />
    </item>
    <item name="HTTP_COOKIE">
      <value string="ASP.NET_SessionId=g3tbvgc1er2xni5cz10ysxpw; __RequestVerificationToken_L1NvbGljaXR1ZEVtcGxlYWRvLk1WQw2=OQ3vdGm61KEBi5n7VZ98tuo2Ficfp8yg2K1ezOEd0AE31-d6fYS0RMYrJLvE_SXhyanSUKUzYzCL2fqqxnvNZGYq_TU1; __RequestVerificationToken_L0FmcFNpdGVDbGllbnRlcw2=CyP_rjwF-mRFapOWaL9bkDQ0FZlfkbdJokKV-xErMa0JBd3vlKfqo7xu6M12wthfDk1ZofHYHWxZtSxlNTQ5nz-HNgd3K6QNB_6ajNi5J141" />
    </item>
    <item name="HTTP_HOST">
      <value string="localhost" />
    </item>
    <item name="HTTP_REFERER">
      <value string="http://localhost/SolicitudEmpleado.MVC/TiposPropiedads/Index/?id1=9&amp;id2=1" />
    </item>
    <item name="HTTP_USER_AGENT">
      <value string="Mozilla/5.0 (Windows NT 6.3; WOW64) AppleWebKit/537.36 (KHTML, like Gecko) Chrome/46.0.2490.80 Safari/537.36" />
    </item>
    <item name="HTTP_ORIGIN">
      <value string="http://localhost" />
    </item>
    <item name="HTTP_UPGRADE_INSECURE_REQUESTS">
      <value string="1" />
    </item>
  </serverVariables>
  <queryString>
    <item name="solicitudTipoId">
      <value string="9" />
    </item>
  </queryString>
  <form>
    <item name="__RequestVerificationToken">
      <value string="lrKjg-7dmVyWWOhXGejAi1TgOJI613rQio0iUIYB6gkAzbrIOc1K5HKrDjPVcN4vR-JtjEBPvpjFzdKWbaa3VMAnUgLc4_Osb0jJKHknVFCUVAM70" />
    </item>
    <item name="Nombre">
      <value string="" />
    </item>
    <item name="Descripcion">
      <value string="" />
    </item>
    <item name="Tipo">
      <value string="bool" />
    </item>
    <item name="RegularExpression">
      <value string="" />
    </item>
    <item name="PlaceHolder">
      <value string="" />
    </item>
    <item name="PorDefecto">
      <value string="" />
    </item>
    <item name="TipoPropiedadID">
      <value string="1" />
    </item>
  </form>
  <cookies>
    <item name="ASP.NET_SessionId">
      <value string="g3tbvgc1er2xni5cz10ysxpw" />
    </item>
    <item name="__RequestVerificationToken_L1NvbGljaXR1ZEVtcGxlYWRvLk1WQw2">
      <value string="OQ3vdGm61KEBi5n7VZ98tuo2Ficfp8yg2K1ezOEd0AE31-d6fYS0RMYrJLvE_SXhyanSUKUzYzCL2fqqxnvNZGYq_TU1" />
    </item>
    <item name="__RequestVerificationToken_L0FmcFNpdGVDbGllbnRlcw2">
      <value string="CyP_rjwF-mRFapOWaL9bkDQ0FZlfkbdJokKV-xErMa0JBd3vlKfqo7xu6M12wthfDk1ZofHYHWxZtSxlNTQ5nz-HNgd3K6QNB_6ajNi5J141" />
    </item>
  </cookies>
</error>