﻿<error errorId="ae7e2f89-ece1-4ff6-b810-12a6bb0d1e20" application="/LM/W3SVC/1/ROOT/SolicitudEmpleado.MVC" host="RIPEREZ" type="System.ArgumentException" message="Value cannot be null or empty.&#xD;&#xA;Parameter name: linkText" source="System.Web.Mvc" detail="System.ArgumentException: Value cannot be null or empty.&#xD;&#xA;Parameter name: linkText&#xD;&#xA;   at System.Web.Mvc.Html.LinkExtensions.ActionLink(HtmlHelper htmlHelper, String linkText, String actionName, String controllerName, RouteValueDictionary routeValues, IDictionary`2 htmlAttributes)&#xD;&#xA;   at ASP._Page_Views_Seguridad__Usuario_cshtml.Execute() in d:\Eduardo\Proyectos\vsNet2013\SolicitudEmpleado\SolicitudEmpleado.MVC\Views\Seguridad\_Usuario.cshtml:line 20&#xD;&#xA;   at System.Web.WebPages.WebPageBase.ExecutePageHierarchy()&#xD;&#xA;   at System.Web.Mvc.WebViewPage.ExecutePageHierarchy()&#xD;&#xA;   at System.Web.WebPages.WebPageBase.ExecutePageHierarchy(WebPageContext pageContext, TextWriter writer, WebPageRenderingBase startPage)&#xD;&#xA;   at System.Web.Mvc.Html.PartialExtensions.Partial(HtmlHelper htmlHelper, String partialViewName, Object model, ViewDataDictionary viewData)&#xD;&#xA;   at ASP._Page_Views_Seguridad_Usuario_cshtml.Execute() in d:\Eduardo\Proyectos\vsNet2013\SolicitudEmpleado\SolicitudEmpleado.MVC\Views\Seguridad\Usuario.cshtml:line 6&#xD;&#xA;   at System.Web.WebPages.WebPageBase.ExecutePageHierarchy()&#xD;&#xA;   at System.Web.Mvc.WebViewPage.ExecutePageHierarchy()&#xD;&#xA;   at System.Web.WebPages.WebPageBase.ExecutePageHierarchy(WebPageContext pageContext, TextWriter writer, WebPageRenderingBase startPage)&#xD;&#xA;   at System.Web.Mvc.ViewResultBase.ExecuteResult(ControllerContext context)&#xD;&#xA;   at System.Web.Mvc.ControllerActionInvoker.InvokeActionResultFilterRecursive(IList`1 filters, Int32 filterIndex, ResultExecutingContext preContext, ControllerContext controllerContext, ActionResult actionResult)&#xD;&#xA;   at System.Web.Mvc.ControllerActionInvoker.InvokeActionResultFilterRecursive(IList`1 filters, Int32 filterIndex, ResultExecutingContext preContext, ControllerContext controllerContext, ActionResult actionResult)&#xD;&#xA;   at System.Web.Mvc.ControllerActionInvoker.InvokeActionResultFilterRecursive(IList`1 filters, Int32 filterIndex, ResultExecutingContext preContext, ControllerContext controllerContext, ActionResult actionResult)&#xD;&#xA;   at System.Web.Mvc.ControllerActionInvoker.InvokeActionResultWithFilters(ControllerContext controllerContext, IList`1 filters, ActionResult actionResult)&#xD;&#xA;   at System.Web.Mvc.Async.AsyncControllerActionInvoker.&lt;&gt;c__DisplayClass21.&lt;BeginInvokeAction&gt;b__1e(IAsyncResult asyncResult)&#xD;&#xA;   at System.Web.Mvc.Controller.&lt;BeginExecuteCore&gt;b__1d(IAsyncResult asyncResult, ExecuteCoreState innerState)&#xD;&#xA;   at System.Web.Mvc.Async.AsyncResultWrapper.WrappedAsyncVoid`1.CallEndDelegate(IAsyncResult asyncResult)&#xD;&#xA;   at System.Web.Mvc.Controller.EndExecuteCore(IAsyncResult asyncResult)&#xD;&#xA;   at System.Web.Mvc.Async.AsyncResultWrapper.WrappedAsyncVoid`1.CallEndDelegate(IAsyncResult asyncResult)&#xD;&#xA;   at System.Web.Mvc.MvcHandler.&lt;BeginProcessRequest&gt;b__5(IAsyncResult asyncResult, ProcessRequestState innerState)&#xD;&#xA;   at System.Web.Mvc.Async.AsyncResultWrapper.WrappedAsyncVoid`1.CallEndDelegate(IAsyncResult asyncResult)&#xD;&#xA;   at System.Web.HttpApplication.CallHandlerExecutionStep.System.Web.HttpApplication.IExecutionStep.Execute()&#xD;&#xA;   at System.Web.HttpApplication.ExecuteStep(IExecutionStep step, Boolean&amp; completedSynchronously)" user="BRRD\ESSeverino" time="2015-11-05T20:38:29.9252936Z">
  <serverVariables>
    <item name="ALL_HTTP">
      <value string="HTTP_CONNECTION:keep-alive&#xD;&#xA;HTTP_ACCEPT:*/*&#xD;&#xA;HTTP_ACCEPT_ENCODING:gzip, deflate, sdch&#xD;&#xA;HTTP_ACCEPT_LANGUAGE:es-ES,es;q=0.8,en;q=0.6,gl;q=0.4,pt;q=0.2&#xD;&#xA;HTTP_COOKIE:ASP.NET_SessionId=g3tbvgc1er2xni5cz10ysxpw; __RequestVerificationToken_L1NvbGljaXR1ZEVtcGxlYWRvLk1WQw2=OQ3vdGm61KEBi5n7VZ98tuo2Ficfp8yg2K1ezOEd0AE31-d6fYS0RMYrJLvE_SXhyanSUKUzYzCL2fqqxnvNZGYq_TU1; __RequestVerificationToken_L0FmcFNpdGVDbGllbnRlcw2=CyP_rjwF-mRFapOWaL9bkDQ0FZlfkbdJokKV-xErMa0JBd3vlKfqo7xu6M12wthfDk1ZofHYHWxZtSxlNTQ5nz-HNgd3K6QNB_6ajNi5J141; .ASPXAUTH=F54339E7C8320B8BF6B2749E01A7D5684F55CCFF7AC81E5D4E89A9ABB00C64C867BDA241A464C6F31139BB53F3DF9D9D2B4ADB32C3DA2175B01656C2FB2F36C90C292F0BDB4DCD2706680D2423920B66E21260BFC0F25BF3042DFBC23C3383CAF776E992C54E7BE7AC2B86A7CA2790A1&#xD;&#xA;HTTP_HOST:localhost&#xD;&#xA;HTTP_REFERER:http://localhost/solicitudempleado.mvc/solicitudes/pendientes&#xD;&#xA;HTTP_USER_AGENT:Mozilla/5.0 (Windows NT 6.3; WOW64) AppleWebKit/537.36 (KHTML, like Gecko) Chrome/46.0.2490.80 Safari/537.36&#xD;&#xA;HTTP_X_REQUESTED_WITH:XMLHttpRequest&#xD;&#xA;" />
    </item>
    <item name="ALL_RAW">
      <value string="Connection: keep-alive&#xD;&#xA;Accept: */*&#xD;&#xA;Accept-Encoding: gzip, deflate, sdch&#xD;&#xA;Accept-Language: es-ES,es;q=0.8,en;q=0.6,gl;q=0.4,pt;q=0.2&#xD;&#xA;Cookie: ASP.NET_SessionId=g3tbvgc1er2xni5cz10ysxpw; __RequestVerificationToken_L1NvbGljaXR1ZEVtcGxlYWRvLk1WQw2=OQ3vdGm61KEBi5n7VZ98tuo2Ficfp8yg2K1ezOEd0AE31-d6fYS0RMYrJLvE_SXhyanSUKUzYzCL2fqqxnvNZGYq_TU1; __RequestVerificationToken_L0FmcFNpdGVDbGllbnRlcw2=CyP_rjwF-mRFapOWaL9bkDQ0FZlfkbdJokKV-xErMa0JBd3vlKfqo7xu6M12wthfDk1ZofHYHWxZtSxlNTQ5nz-HNgd3K6QNB_6ajNi5J141; .ASPXAUTH=F54339E7C8320B8BF6B2749E01A7D5684F55CCFF7AC81E5D4E89A9ABB00C64C867BDA241A464C6F31139BB53F3DF9D9D2B4ADB32C3DA2175B01656C2FB2F36C90C292F0BDB4DCD2706680D2423920B66E21260BFC0F25BF3042DFBC23C3383CAF776E992C54E7BE7AC2B86A7CA2790A1&#xD;&#xA;Host: localhost&#xD;&#xA;Referer: http://localhost/solicitudempleado.mvc/solicitudes/pendientes&#xD;&#xA;User-Agent: Mozilla/5.0 (Windows NT 6.3; WOW64) AppleWebKit/537.36 (KHTML, like Gecko) Chrome/46.0.2490.80 Safari/537.36&#xD;&#xA;X-Requested-With: XMLHttpRequest&#xD;&#xA;" />
    </item>
    <item name="APPL_MD_PATH">
      <value string="/LM/W3SVC/1/ROOT/SolicitudEmpleado.MVC" />
    </item>
    <item name="APPL_PHYSICAL_PATH">
      <value string="D:\Eduardo\Proyectos\vsNet2013\SolicitudEmpleado\SolicitudEmpleado.MVC\" />
    </item>
    <item name="AUTH_TYPE">
      <value string="Negotiate" />
    </item>
    <item name="AUTH_USER">
      <value string="BRRD\ESSeverino" />
    </item>
    <item name="AUTH_PASSWORD">
      <value string="*****" />
    </item>
    <item name="LOGON_USER">
      <value string="BRRD\ESSeverino" />
    </item>
    <item name="REMOTE_USER">
      <value string="BRRD\ESSeverino" />
    </item>
    <item name="CERT_COOKIE">
      <value string="" />
    </item>
    <item name="CERT_FLAGS">
      <value string="" />
    </item>
    <item name="CERT_ISSUER">
      <value string="" />
    </item>
    <item name="CERT_KEYSIZE">
      <value string="" />
    </item>
    <item name="CERT_SECRETKEYSIZE">
      <value string="" />
    </item>
    <item name="CERT_SERIALNUMBER">
      <value string="" />
    </item>
    <item name="CERT_SERVER_ISSUER">
      <value string="" />
    </item>
    <item name="CERT_SERVER_SUBJECT">
      <value string="" />
    </item>
    <item name="CERT_SUBJECT">
      <value string="" />
    </item>
    <item name="CONTENT_LENGTH">
      <value string="0" />
    </item>
    <item name="CONTENT_TYPE">
      <value string="" />
    </item>
    <item name="GATEWAY_INTERFACE">
      <value string="CGI/1.1" />
    </item>
    <item name="HTTPS">
      <value string="off" />
    </item>
    <item name="HTTPS_KEYSIZE">
      <value string="" />
    </item>
    <item name="HTTPS_SECRETKEYSIZE">
      <value string="" />
    </item>
    <item name="HTTPS_SERVER_ISSUER">
      <value string="" />
    </item>
    <item name="HTTPS_SERVER_SUBJECT">
      <value string="" />
    </item>
    <item name="INSTANCE_ID">
      <value string="1" />
    </item>
    <item name="INSTANCE_META_PATH">
      <value string="/LM/W3SVC/1" />
    </item>
    <item name="LOCAL_ADDR">
      <value string="::1" />
    </item>
    <item name="PATH_INFO">
      <value string="/SolicitudEmpleado.MVC/Seguridad/Usuario/16649" />
    </item>
    <item name="PATH_TRANSLATED">
      <value string="D:\Eduardo\Proyectos\vsNet2013\SolicitudEmpleado\SolicitudEmpleado.MVC\Seguridad\Usuario\16649" />
    </item>
    <item name="QUERY_STRING">
      <value string="" />
    </item>
    <item name="REMOTE_ADDR">
      <value string="::1" />
    </item>
    <item name="REMOTE_HOST">
      <value string="::1" />
    </item>
    <item name="REMOTE_PORT">
      <value string="56397" />
    </item>
    <item name="REQUEST_METHOD">
      <value string="GET" />
    </item>
    <item name="SCRIPT_NAME">
      <value string="/SolicitudEmpleado.MVC/Seguridad/Usuario/16649" />
    </item>
    <item name="SERVER_NAME">
      <value string="localhost" />
    </item>
    <item name="SERVER_PORT">
      <value string="80" />
    </item>
    <item name="SERVER_PORT_SECURE">
      <value string="0" />
    </item>
    <item name="SERVER_PROTOCOL">
      <value string="HTTP/1.1" />
    </item>
    <item name="SERVER_SOFTWARE">
      <value string="Microsoft-IIS/8.5" />
    </item>
    <item name="URL">
      <value string="/SolicitudEmpleado.MVC/Seguridad/Usuario/16649" />
    </item>
    <item name="HTTP_CONNECTION">
      <value string="keep-alive" />
    </item>
    <item name="HTTP_ACCEPT">
      <value string="*/*" />
    </item>
    <item name="HTTP_ACCEPT_ENCODING">
      <value string="gzip, deflate, sdch" />
    </item>
    <item name="HTTP_ACCEPT_LANGUAGE">
      <value string="es-ES,es;q=0.8,en;q=0.6,gl;q=0.4,pt;q=0.2" />
    </item>
    <item name="HTTP_COOKIE">
      <value string="ASP.NET_SessionId=g3tbvgc1er2xni5cz10ysxpw; __RequestVerificationToken_L1NvbGljaXR1ZEVtcGxlYWRvLk1WQw2=OQ3vdGm61KEBi5n7VZ98tuo2Ficfp8yg2K1ezOEd0AE31-d6fYS0RMYrJLvE_SXhyanSUKUzYzCL2fqqxnvNZGYq_TU1; __RequestVerificationToken_L0FmcFNpdGVDbGllbnRlcw2=CyP_rjwF-mRFapOWaL9bkDQ0FZlfkbdJokKV-xErMa0JBd3vlKfqo7xu6M12wthfDk1ZofHYHWxZtSxlNTQ5nz-HNgd3K6QNB_6ajNi5J141; .ASPXAUTH=F54339E7C8320B8BF6B2749E01A7D5684F55CCFF7AC81E5D4E89A9ABB00C64C867BDA241A464C6F31139BB53F3DF9D9D2B4ADB32C3DA2175B01656C2FB2F36C90C292F0BDB4DCD2706680D2423920B66E21260BFC0F25BF3042DFBC23C3383CAF776E992C54E7BE7AC2B86A7CA2790A1" />
    </item>
    <item name="HTTP_HOST">
      <value string="localhost" />
    </item>
    <item name="HTTP_REFERER">
      <value string="http://localhost/solicitudempleado.mvc/solicitudes/pendientes" />
    </item>
    <item name="HTTP_USER_AGENT">
      <value string="Mozilla/5.0 (Windows NT 6.3; WOW64) AppleWebKit/537.36 (KHTML, like Gecko) Chrome/46.0.2490.80 Safari/537.36" />
    </item>
    <item name="HTTP_X_REQUESTED_WITH">
      <value string="XMLHttpRequest" />
    </item>
  </serverVariables>
  <cookies>
    <item name="ASP.NET_SessionId">
      <value string="g3tbvgc1er2xni5cz10ysxpw" />
    </item>
    <item name="__RequestVerificationToken_L1NvbGljaXR1ZEVtcGxlYWRvLk1WQw2">
      <value string="OQ3vdGm61KEBi5n7VZ98tuo2Ficfp8yg2K1ezOEd0AE31-d6fYS0RMYrJLvE_SXhyanSUKUzYzCL2fqqxnvNZGYq_TU1" />
    </item>
    <item name="__RequestVerificationToken_L0FmcFNpdGVDbGllbnRlcw2">
      <value string="CyP_rjwF-mRFapOWaL9bkDQ0FZlfkbdJokKV-xErMa0JBd3vlKfqo7xu6M12wthfDk1ZofHYHWxZtSxlNTQ5nz-HNgd3K6QNB_6ajNi5J141" />
    </item>
    <item name=".ASPXAUTH">
      <value string="F54339E7C8320B8BF6B2749E01A7D5684F55CCFF7AC81E5D4E89A9ABB00C64C867BDA241A464C6F31139BB53F3DF9D9D2B4ADB32C3DA2175B01656C2FB2F36C90C292F0BDB4DCD2706680D2423920B66E21260BFC0F25BF3042DFBC23C3383CAF776E992C54E7BE7AC2B86A7CA2790A1" />
    </item>
  </cookies>
</error>